[
  {
    "id": "02b",
    "image": "https://www.verywellfit.com/thmb/aEBWlcb7dEtuZxT18fvqBtHsgJQ=/3000x2002/filters:no_upscale():max_bytes(150000):strip_icc()/dairy-cacff1ed02c741f38d87b5d9c0043b9f.jpg",
    "alt": "21",
    "category": "ماست",
    "productName": "ماست یونانی",
    "weight": "200 ",
    "price": "2000 ",
    "percent": "%20",
    "unit": "عدد"
  },
  {
    "id": "01a",
    "image": "https://www.yogurtinnutrition.com/wp-content/uploads/2015/07/dairy-products-milk-cottage-cheese-eggs-yogurt.jpg",
    "alt": "21",
    "category": "ماست",
    "productName": "ماست یونانی",
    "weight": "200 ",
    "price": "3000 ",
    "percent": "%30",
    "unit": "گرم"
  },
  {
    "id": "02b",
    "image": "https://encrypted-tbn0.gstatic.com/images?q=tbn:ANd9GcRDfrkXJqO1XeaS8LxHbpvbUKJvUr8ArU2ddhnaDVXz6XHNFLeH6g&s",
    "alt": "21",
    "category": "ماست",
    "productName": "ماست یونانی",
    "weight": "200 ",
    "price": "2000 ",
    "percent": "%20",
    "unit": "عدد"
  },
  {
    "id": "02b",
    "image": "https://encrypted-tbn0.gstatic.com/images?q=tbn:ANd9GcRDfrkXJqO1XeaS8LxHbpvbUKJvUr8ArU2ddhnaDVXz6XHNFLeH6g&s",
    "alt": "21",
    "category": "ماست",
    "productName": "ماست یونانی",
    "weight": "200 ",
    "price": "2000 ",
    "percent": "%20",
    "unit": "عدد"
  },
  {
    "id": "01a",
    "image": "https://lh3.googleusercontent.com/proxy/sUKsbQTfWPrnUk74aSa736rT6_hOvTReTIZP7hNk2bBSux7K3TM1DBai-0y4jYiPtDX5QbHPQ4_BCUI5WoK90iYKOOqKrGkxLgGlItj0eP-v8k8ojhETbSZLD47_0kidxrhikfQ",
    "alt": "21",
    "category": "ماست",
    "productName": "ماست یونانی",
    "weight": "200 ",
    "price": "3000 ",
    "percent": "%30",
    "unit": "گرم"
  },
  {
    "id": "02b",
    "image": "https://cdn1.sph.harvard.edu/wp-content/uploads/sites/30/2012/09/dairy-calcium-and-milk.jpg",
    "alt": "21",
    "category": "ماست",
    "productName": "ماست یونانی",
    "weight": "200 ",
    "price": "2000 ",
    "percent": "%20",
    "unit": "عدد"
  },
  {
    "id": "01a",
    "image": "https://lh5.googleusercontent.com/proxy/JZv1WXiFgMTFOBanXVKUkHLN0AlqEKq2bP4d_t9az0R61jvupF1IlS5fSQXIvV559ii8XeT91B9xuvqf-3u4ns6WxEAUcqyfXOvtgVl5TeH98PM63vZvSSWo7w",
    "alt": "21",
    "category": "ماست",
    "productName": "ماست یونانی",
    "weight": "200 ",
    "price": "3000 ",
    "percent": "%30",
    "unit": "گرم"
  },
  {
    "id": "02b",
    "image": "https://media.mehrnews.com/d/2019/12/24/4/3328273.jpg",
    "alt": "21",
    "category": "ماست",
    "productName": "ماست یونانی",
    "weight": "200 ",
    "price": "2000 ",
    "percent": "%20",
    "unit": "عدد"
  },
  {
    "id": "01a",
    "image": "https://static2.en.eghtesadonline.com/thumbnail/hzbwi7k7ttr9/OogIJFX66ZbRXsLw9vm8fVW5Pw12GtzVbLgM8osrQwbqR9tQLYsj4ulhLqRLNFaJl53xwsjMgPkwpMBlyx3aU9ONmhYaH4Ekb2oTZnS3oq-eLqlXKbS--Q,,/c8bHU9EDXnLJ.jpg",
    "alt": "21",
    "category": "ماست",
    "productName": "ماست یونانی",
    "weight": "200 ",
    "price": "3000 ",
    "percent": "%30",
    "unit": "گرم"
  },
  {
    "id": "02b",
    "image": "https://static.toiimg.com/thumb/74983672.cms?width=680&height=512&imgsize=119394",
    "alt": "21",
    "category": "ماست",
    "productName": "ماست یونانی",
    "weight": "200 ",
    "price": "2000 ",
    "percent": "%20",
    "unit": "عدد"
  },
  {
    "id": "01a",
    "image": "https://media.mehrnews.com/d/2019/12/24/4/3328273.jpg",
    "alt": "21",
    "category": "ماست",
    "productName": "ماست یونانی",
    "weight": "200 ",
    "price": "3000 ",
    "percent": "%30",
    "unit": "گرم"
  },
  {
    "id": "02b",
    "image": "https://encrypted-tbn0.gstatic.com/images?q=tbn:ANd9GcRDfrkXJqO1XeaS8LxHbpvbUKJvUr8ArU2ddhnaDVXz6XHNFLeH6g&s",
    "alt": "21",
    "category": "ماست",
    "productName": "ماست یونانی",
    "weight": "200 ",
    "price": "2000 ",
    "percent": "%20",
    "unit": "عدد"
  },
  {
    "id": "01a",
    "image": "https://static.toiimg.com/thumb/74983672.cms?width=680&height=512&imgsize=119394",
    "alt": "21",
    "category": "ماست",
    "productName": "ماست یونانی",
    "weight": "200 ",
    "price": "3000 ",
    "percent": "%30",
    "unit": "گرم"
  },
  {
    "id": "02b",
    "image": "https://www.verywellfit.com/thmb/aEBWlcb7dEtuZxT18fvqBtHsgJQ=/3000x2002/filters:no_upscale():max_bytes(150000):strip_icc()/dairy-cacff1ed02c741f38d87b5d9c0043b9f.jpg",
    "alt": "21",
    "category": "ماست",
    "productName": "ماست یونانی",
    "weight": "200 ",
    "price": "2000 ",
    "percent": "%20",
    "unit": "عدد"
  },
  {
    "id": "01a",
    "image": "https://www.yogurtinnutrition.com/wp-content/uploads/2015/07/dairy-products-milk-cottage-cheese-eggs-yogurt.jpg",
    "alt": "21",
    "category": "ماست",
    "productName": "ماست یونانی",
    "weight": "200 ",
    "price": "3000 ",
    "percent": "%30",
    "unit": "گرم"
  },
  {
    "id": "02b",
    "image": "https://encrypted-tbn0.gstatic.com/images?q=tbn:ANd9GcRDfrkXJqO1XeaS8LxHbpvbUKJvUr8ArU2ddhnaDVXz6XHNFLeH6g&s",
    "alt": "21",
    "category": "ماست",
    "productName": "ماست یونانی",
    "weight": "200 ",
    "price": "2000 ",
    "percent": "%20",
    "unit": "عدد"
  }
]
